^C:\USERS\משתמש\CHESS_PROJECT\CHSEE\CHSEE\BISHOP.CPP|C:\USERS\משתמש\CHESS_PROJECT\CHSEE\CHSEE\BOARD.CPP|C:\USERS\משתמש\CHESS_PROJECT\CHSEE\CHSEE\KING.CPP|C:\USERS\משתמש\CHESS_PROJECT\CHSEE\CHSEE\KNIGHT.CPP|C:\USERS\משתמש\CHESS_PROJECT\CHSEE\CHSEE\MAINGAME.CPP|C:\USERS\משתמש\CHESS_PROJECT\CHSEE\CHSEE\PAWN.CPP|C:\USERS\משתמש\CHESS_PROJECT\CHSEE\CHSEE\PICECONTROL.CPP|C:\USERS\משתמש\CHESS_PROJECT\CHSEE\CHSEE\POINT.CPP|C:\USERS\משתמש\CHESS_PROJECT\CHSEE\CHSEE\QUEEN.CPP|C:\USERS\משתמש\CHESS_PROJECT\CHSEE\CHSEE\REGULAR.CPP|C:\USERS\משתמש\CHESS_PROJECT\CHSEE\CHSEE\ROOK.CPP|C:\USERS\משתמש\CHESS_PROJECT\CHSEE\CHSEE\SOURCE.CPP|C:\USERS\משתמש\CHESS_PROJECT\CHSEE\CHSEE\STDAFX.CPP
C:\USERS\משתמש\CHESS_PROJECT\CHSEE\CHSEE\X64\DEBUG\VC142.PDB
C:\USERS\משתמש\CHESS_PROJECT\CHSEE\CHSEE\X64\DEBUG\VC142.IDB
C:\USERS\משתמש\CHESS_PROJECT\CHSEE\CHSEE\X64\DEBUG\STDAFX.OBJ
C:\USERS\משתמש\CHESS_PROJECT\CHSEE\CHSEE\X64\DEBUG\REGULAR.OBJ
C:\USERS\משתמש\CHESS_PROJECT\CHSEE\CHSEE\X64\DEBUG\POINT.OBJ
C:\USERS\משתמש\CHESS_PROJECT\CHSEE\CHSEE\X64\DEBUG\KING.OBJ
C:\USERS\משתמש\CHESS_PROJECT\CHSEE\CHSEE\X64\DEBUG\BOARD.OBJ
^C:\USERS\משתמש\CHESS_PROJECT\CHSEE\CHSEE\BOARD.CPP
C:\USERS\משתמש\CHESS_PROJECT\CHSEE\CHSEE\X64\DEBUG\BOARD.OBJ
^C:\USERS\משתמש\CHESS_PROJECT\CHSEE\CHSEE\KING.CPP
C:\USERS\משתמש\CHESS_PROJECT\CHSEE\CHSEE\X64\DEBUG\KING.OBJ
